List Name, Name , List Id, Internal Id 
Shipping Method,Factory Air,customlist_ka_shipping_method,5
Shipping Method,Factory Air Split - Ocean Diff,customlist_ka_shipping_method,6
Shipping Method,Factory Air Split 50/50,customlist_ka_shipping_method,1
Shipping Method,K&A Air,customlist_ka_shipping_method,2
Shipping Method,Ocean,customlist_ka_shipping_method,3
Shipping Method,Truck,customlist_ka_shipping_method,4
Season,2014 Summer,customrecord_wfx_season,3
Season,2015 Summer,customrecord_wfx_season,1
Season,2015 Winter,customrecord_wfx_season,2
Season,BW14,customrecord_wfx_season,31
Season,C/O,customrecord_wfx_season,4
Season,DD2014,customrecord_wfx_season,32
Season,FA14,customrecord_wfx_season,24
Season,FA15,customrecord_wfx_season,28
Season,FW14,customrecord_wfx_season,5
Season,HOS14,customrecord_wfx_season,30
Season,Inno,customrecord_wfx_season,33
Season,SP15,customrecord_wfx_season,26
Season,SP16,customrecord_wfx_season,34
Season,STDB,customrecord_wfx_season,37
Season,SU14,customrecord_wfx_season,6
Season,SU14 CHASE,customrecord_wfx_season,7
Season,SU15,customrecord_wfx_season,27
Season,SU16,customrecord_wfx_season,38
Season,WI14,customrecord_wfx_season,25
Season,WI15,customrecord_wfx_season,29
Season,WI15-BW,customrecord_wfx_season,35
Season,WI15-HS,customrecord_wfx_season,36
PO Type,Chase,customlist_ka_po_type,2
PO Type,Seasonal,customlist_ka_po_type,1
Shipping Port,BANGKOK,customlist_ka_shipping_port,22
Shipping Port,CALLAO,customlist_ka_shipping_port,8
Shipping Port,CEBU,customlist_ka_shipping_port,9
Shipping Port,CHINGGIS KHAAN,customlist_ka_shipping_port,11
Shipping Port,CHITTAGONG,customlist_ka_shipping_port,1
Shipping Port,COLOMBO,customlist_ka_shipping_port,13
Shipping Port,DHAKA,customlist_ka_shipping_port,2
Shipping Port,HAIPHONA,customlist_ka_shipping_port,14
Shipping Port,HAIPHONG,customlist_ka_shipping_port,16
Shipping Port,HANOI,customlist_ka_shipping_port,19
Shipping Port,HONG KONG,customlist_ka_shipping_port,4
Shipping Port,JAKARTA,customlist_ka_shipping_port,17
Shipping Port,MANILA,customlist_ka_shipping_port,12
Shipping Port,NEW YORK ,customlist_ka_shipping_port,23
Shipping Port,NOIBAI,customlist_ka_shipping_port,25
Shipping Port,PHNOM PENH,customlist_ka_shipping_port,21
Shipping Port,PO DONG,customlist_ka_shipping_port,10
Shipping Port,QINGDAO,customlist_ka_shipping_port,5
Shipping Port,QUEBEC,customlist_ka_shipping_port,24
Shipping Port,SHANGHAI,customlist_ka_shipping_port,6
Shipping Port,SHENZHEN,customlist_ka_shipping_port,7
Shipping Port,SIHANOUKVILLE,customlist_ka_shipping_port,20
Shipping Port,ULAANBAATAR,customlist_ka_shipping_port,18
Shipping Port,VANCOUVER,customlist_ka_shipping_port,3
Channel,AUSTRALIA,customrecord_ka_channel_list,7
Channel,CANADA,customrecord_ka_channel_list,1
Channel,US,customrecord_ka_channel_list,3
