Disposal Type,Disposal Date,Asset,Quantity to Dispose,Location
Write-off,7/4/2016,981,101,RETAIL SHOPS : RETAIL SHOPS USA : 2001 - New York Nolita
Write-off,7/4/2016,995,8,RETAIL SHOPS : RETAIL SHOPS USA : 2001 - New York Nolita
Write-off,7/4/2016,7449,1,RETAIL SHOPS : RETAIL SHOPS USA : 2106 - Walnut Creek Brdway Plaz
Write-off,7/4/2016,7448,1,RETAIL SHOPS : RETAIL SHOPS USA : 2106 - Walnut Creek Brdway Plaz
Write-off,7/4/2016,7411,1,RETAIL SHOPS : RETAIL SHOPS USA : 2106 - Walnut Creek Brdway Plaz
Write-off,7/4/2016,7453,1,RETAIL SHOPS : RETAIL SHOPS USA : 2106 - Walnut Creek Brdway Plaz
Write-off,7/4/2016,7447,2,RETAIL SHOPS : RETAIL SHOPS USA : 2106 - Walnut Creek Brdway Plaz
Write-off,7/4/2016,7450,2,RETAIL SHOPS : RETAIL SHOPS USA : 2106 - Walnut Creek Brdway Plaz
Write-off,7/4/2016,5062,2,RETAIL SHOPS : RETAIL SHOPS USA : 2301 - Bethesda
Write-off,7/4/2016,5064,2,RETAIL SHOPS : RETAIL SHOPS USA : 2301 - Bethesda
Write-off,7/4/2016,5063,2,RETAIL SHOPS : RETAIL SHOPS USA : 2301 - Bethesda
Write-off,7/4/2016,5077,2,RETAIL SHOPS : RETAIL SHOPS USA : 2301 - Bethesda
Write-off,7/4/2016,5076,1,RETAIL SHOPS : RETAIL SHOPS USA : 2301 - Bethesda
Write-off,7/4/2016,8200,2,RETAIL SHOPS : RETAIL SHOPS USA : 2301 - Bethesda
Write-off,7/4/2016,10738,1,RETAIL SHOPS : RETAIL SHOPS USA : 2003 - Boston Newbury
Write-off,7/4/2016,8941,2,RETAIL SHOPS : RETAIL SHOPS USA : 2003 - Boston Newbury
Write-off,7/4/2016,8956,2,RETAIL SHOPS : RETAIL SHOPS USA : 2003 - Boston Newbury
Write-off,7/4/2016,4465,2,RETAIL SHOPS : RETAIL SHOPS USA : 2003 - Boston Newbury
Write-off,7/4/2016,8940,1,RETAIL SHOPS : RETAIL SHOPS USA : 2003 - Boston Newbury
Write-off,7/4/2016,4463,1,RETAIL SHOPS : RETAIL SHOPS USA : 2003 - Boston Newbury
Write-off,7/4/2016,4457,1,RETAIL SHOPS : RETAIL SHOPS USA : 2003 - Boston Newbury
Write-off,7/4/2016,8939,1,RETAIL SHOPS : RETAIL SHOPS USA : 2003 - Boston Newbury
Write-off,7/4/2016,7529,10,RETAIL SHOPS : RETAIL SHOPS USA : 2202 -St. Louis Plaza Frontenac
Write-off,7/4/2016,5788,2,RETAIL SHOPS : RETAIL SHOPS USA : 2202 -St. Louis Plaza Frontenac
Write-off,7/4/2016,5792,2,RETAIL SHOPS : RETAIL SHOPS USA : 2202 -St. Louis Plaza Frontenac
Write-off,7/4/2016,5786,2,RETAIL SHOPS : RETAIL SHOPS USA : 2202 -St. Louis Plaza Frontenac
Write-off,7/4/2016,5789,2,RETAIL SHOPS : RETAIL SHOPS USA : 2202 -St. Louis Plaza Frontenac
Write-off,7/4/2016,5787,1,RETAIL SHOPS : RETAIL SHOPS USA : 2202 -St. Louis Plaza Frontenac
Write-off,7/4/2016,5793,1,RETAIL SHOPS : RETAIL SHOPS USA : 2202 -St. Louis Plaza Frontenac
Write-off,7/4/2016,7514,8,RETAIL SHOPS : RETAIL SHOPS USA : 2202 -St. Louis Plaza Frontenac
Write-off,7/4/2016,7553,4,RETAIL SHOPS : RETAIL SHOPS USA : 2202 -St. Louis Plaza Frontenac
Write-off,7/4/2016,1000,1,RETAIL SHOPS : RETAIL SHOPS USA : 2101 - San Francisco Fillmore
Write-off,7/4/2016,1009,9,RETAIL SHOPS : RETAIL SHOPS USA : 2101 - San Francisco Fillmore
Write-off,7/4/2016,9189,1,RETAIL SHOPS : RETAIL SHOPS USA : 2103 - Venice Abbott Kinney
